<?xml version="1.0" standalone="no"?>
<!DOCTYPE svg PUBLIC "-//W3C//DTD SVG 20010904//EN"
 "http://www.w3.org/TR/2001/REC-SVG-20010904/DTD/svg10.dtd">
<svg version="1.0" xmlns="http://www.w3.org/2000/svg"
 width="200.000000pt" height="200.000000pt" viewBox="0 0 200.000000 200.000000"
 preserveAspectRatio="xMidYMid meet">
<metadata>
Created by potrace 1.11, written by Peter Selinger 2001-2013
</metadata>
<g transform="translate(0.000000,200.000000) scale(0.100000,-0.100000)"
fill="#000000" stroke="none">
<path d="M844 1348 l-37 -32 7 -166 7 -165 -98 -3 c-115 -4 -128 -11 -112 -63
l12 -36 -106 -104 c-107 -106 -127 -141 -112 -190 11 -35 87 -62 151 -54 39 5
68 2 106 -11 71 -23 200 -13 273 23 l52 26 119 -37 c65 -20 127 -41 136 -46
27 -15 32 -14 174 55 135 65 178 101 156 128 -6 7 -47 30 -91 52 l-81 39 0 43
c0 42 0 43 -35 43 l-35 0 -1 58 c-2 213 -16 403 -29 416 -10 9 -85 21 -210 35
-107 12 -198 21 -202 21 -4 0 -24 -14 -44 -32z m276 -13 c85 -9 157 -19 160
-22 5 -5 -86 1 -175 12 l-40 5 40 -14 c61 -21 37 -19 -77 9 -115 28 -118 28
-118 17 0 -5 35 -17 78 -27 42 -9 86 -24 97 -32 l20 -15 -20 5 c-11 3 -60 18
-109 32 -72 22 -90 24 -97 14 -6 -10 -11 -11 -19 -3 -19 19 28 46 70 40 19 -3
105 -12 190 -21z m-123 -80 c87 -25 177 -53 201 -62 l42 -16 0 -57 c0 -31 3
-104 6 -161 5 -82 3 -108 -8 -123 -14 -18 -16 -18 -54 8 -57 39 -103 36 -143
-9 -27 -31 -31 -42 -27 -80 6 -56 11 -64 52 -81 44 -19 93 -18 115 2 11 10 23
13 31 8 21 -13 141 -4 159 12 19 17 40 18 63 1 16 -12 11 -17 -51 -49 -37 -20
-82 -44 -98 -53 -30 -17 -31 -17 -160 31 -72 26 -139 54 -150 61 -11 7 -34 41
-52 75 -25 49 -29 64 -19 72 7 6 23 26 35 44 l23 32 -24 20 c-12 11 -35 19
-49 20 -15 0 -32 6 -38 14 -12 14 -29 336 -18 336 3 0 77 -20 164 -45z m-50
39 c-3 -3 -12 -4 -19 -1 -8 3 -5 6 6 6 11 1 17 -2 13 -5z m290 -15 c11 -4 25
-14 29 -21 6 -10 5 -10 -7 -2 -20 16 -57 24 -61 13 -2 -5 -16 -5 -33 0 -21 7
-24 10 -10 10 17 1 18 3 5 12 -17 11 37 3 77 -12z m-33 -47 c-27 -6 -82 8 -87
22 -4 10 7 9 49 -3 30 -9 47 -18 38 -19z m93 -119 c-2 -16 -4 -5 -4 22 0 28 2
40 4 28 2 -13 2 -35 0 -50z m-30 -5 c-3 -8 -6 -5 -6 6 -1 11 2 17 5 13 3 -3 4
-12 1 -19z m10 -40 c-3 -8 -6 -5 -6 6 -1 11 2 17 5 13 3 -3 4 -12 1 -19z m23
-128 c0 -47 -4 -80 -10 -80 -5 0 -10 15 -10 34 0 40 11 126 16 126 2 0 4 -36
4 -80z m-480 14 c22 -9 40 -21 40 -26 0 -6 9 -8 21 -5 26 7 49 -1 49 -17 0 -6
-8 -21 -18 -34 l-18 -23 -12 25 c-7 16 -20 26 -33 26 -12 0 -37 16 -56 35 -38
39 -32 43 27 19z m-87 -10 c26 -4 43 -15 58 -35 11 -16 29 -29 39 -29 10 0 26
-10 35 -22 15 -22 14 -23 -6 -26 -12 -2 -51 5 -88 16 -36 12 -78 23 -93 26
-17 4 -34 18 -43 36 -24 45 -20 53 23 46 20 -4 54 -9 75 -12z m433 -110 c32
-15 34 -19 34 -65 0 -82 -62 -115 -135 -70 -25 15 -31 25 -32 59 -3 77 57 112
133 76z m-426 -15 c19 -5 45 -16 57 -24 27 -19 50 -92 34 -108 -14 -14 -14
-44 0 -53 19 -12 33 15 31 63 l-1 48 14 -30 c7 -16 11 -40 8 -52 -4 -17 -1
-23 12 -23 15 0 17 6 12 36 -10 63 2 67 39 14 48 -70 45 -91 -15 -123 -63 -35
-95 -36 -86 -4 6 20 5 20 -19 -5 -32 -34 -81 -37 -162 -11 -45 14 -52 19 -43
34 16 32 10 32 -26 0 -40 -35 -76 -39 -130 -16 -40 16 -50 34 -41 69 9 35 79
120 138 166 47 38 54 40 97 34 25 -3 62 -10 81 -15z m610 2 c-25 -15 -110 -25
-110 -13 0 15 19 20 75 21 33 0 45 -3 35 -8z m-497 -42 c6 -24 7 -24 -27 11
-28 30 -28 31 -3 19 14 -6 28 -20 30 -30z m32 0 c10 -43 1 -46 -12 -4 -6 19
-7 35 -3 35 5 0 11 -14 15 -31z m483 -60 c-21 -13 -28 51 -9 75 15 17 16 16
19 -24 2 -28 -1 -46 -10 -51z m-44 55 c3 -9 6 -29 6 -45 0 -29 -1 -29 -58 -29
l-58 0 4 39 c4 38 6 40 40 44 21 2 42 4 48 5 7 1 15 -5 18 -14z m161 -71 c19
-9 35 -19 35 -23 0 -12 -237 -130 -261 -130 -13 0 31 27 104 63 69 34 127 65
127 69 0 4 -12 14 -27 22 -38 21 -22 20 22 -1z m75 -47 c0 -7 -152 -93 -213
-121 -31 -15 -63 -25 -70 -22 -6 2 51 36 128 75 135 68 155 77 155 68z m-519
-21 c34 -16 34 -16 4 -10 -16 4 -34 11 -39 16 -14 13 -3 11 35 -6z m76 -59
c181 -61 180 -77 -2 -22 -60 18 -111 38 -113 45 -5 16 4 14 115 -23z"/>
</g>
</svg>
